%!PS-Adobe-3.0 EPSF-3.0
%%Creator: (MATLAB, The Mathworks, Inc. Version 9.1.0.441655 \(R2016b\). Operating System: Windows 8)
%%Title: (C:/Users/Menno/Projects/Unief/Ma 1/Semester 2/Computergraphics - Project/Project/verslag/variance.eps)
%%CreationDate: 2017-05-13T20:53:12
%%Pages: (atend)
%%BoundingBox: 0 0 420 315
%%LanguageLevel: 3
%%EndComments
%%BeginProlog
%%BeginResource: procset (Apache XML Graphics Std ProcSet) 1.2 0
%%Version: 1.2 0
%%Copyright: (Copyright 2001-2003,2010 The Apache Software Foundation. License terms: http://www.apache.org/licenses/LICENSE-2.0)
/bd{bind def}bind def
/ld{load def}bd
/GR/grestore ld
/M/moveto ld
/LJ/setlinejoin ld
/C/curveto ld
/f/fill ld
/LW/setlinewidth ld
/GC/setgray ld
/t/show ld
/N/newpath ld
/CT/concat ld
/cp/closepath ld
/S/stroke ld
/L/lineto ld
/CC/setcmykcolor ld
/A/ashow ld
/GS/gsave ld
/RC/setrgbcolor ld
/RM/rmoveto ld
/ML/setmiterlimit ld
/re {4 2 roll M
1 index 0 rlineto
0 exch rlineto
neg 0 rlineto
cp } bd
/_ctm matrix def
/_tm matrix def
/BT { _ctm currentmatrix pop matrix _tm copy pop 0 0 moveto } bd
/ET { _ctm setmatrix } bd
/iTm { _ctm setmatrix _tm concat } bd
/Tm { _tm astore pop iTm 0 0 moveto } bd
/ux 0.0 def
/uy 0.0 def
/F {
  /Tp exch def
  /Tf exch def
  Tf findfont Tp scalefont setfont
  /cf Tf def  /cs Tp def
} bd
/ULS {currentpoint /uy exch def /ux exch def} bd
/ULE {
  /Tcx currentpoint pop def
  gsave
  newpath
  cf findfont cs scalefont dup
  /FontMatrix get 0 get /Ts exch def /FontInfo get dup
  /UnderlinePosition get Ts mul /To exch def
  /UnderlineThickness get Ts mul /Tt exch def
  ux uy To add moveto  Tcx uy To add lineto
  Tt setlinewidth stroke
  grestore
} bd
/OLE {
  /Tcx currentpoint pop def
  gsave
  newpath
  cf findfont cs scalefont dup
  /FontMatrix get 0 get /Ts exch def /FontInfo get dup
  /UnderlinePosition get Ts mul /To exch def
  /UnderlineThickness get Ts mul /Tt exch def
  ux uy To add cs add moveto Tcx uy To add cs add lineto
  Tt setlinewidth stroke
  grestore
} bd
/SOE {
  /Tcx currentpoint pop def
  gsave
  newpath
  cf findfont cs scalefont dup
  /FontMatrix get 0 get /Ts exch def /FontInfo get dup
  /UnderlinePosition get Ts mul /To exch def
  /UnderlineThickness get Ts mul /Tt exch def
  ux uy To add cs 10 mul 26 idiv add moveto Tcx uy To add cs 10 mul 26 idiv add lineto
  Tt setlinewidth stroke
  grestore
} bd
/QT {
/Y22 exch store
/X22 exch store
/Y21 exch store
/X21 exch store
currentpoint
/Y21 load 2 mul add 3 div exch
/X21 load 2 mul add 3 div exch
/X21 load 2 mul /X22 load add 3 div
/Y21 load 2 mul /Y22 load add 3 div
/X22 load /Y22 load curveto
} bd
/SSPD {
dup length /d exch dict def
{
/v exch def
/k exch def
currentpagedevice k known {
/cpdv currentpagedevice k get def
v cpdv ne {
/upd false def
/nullv v type /nulltype eq def
/nullcpdv cpdv type /nulltype eq def
nullv nullcpdv or
{
/upd true def
} {
/sametype v type cpdv type eq def
sametype {
v type /arraytype eq {
/vlen v length def
/cpdvlen cpdv length def
vlen cpdvlen eq {
0 1 vlen 1 sub {
/i exch def
/obj v i get def
/cpdobj cpdv i get def
obj cpdobj ne {
/upd true def
exit
} if
} for
} {
/upd true def
} ifelse
} {
v type /dicttype eq {
v {
/dv exch def
/dk exch def
/cpddv cpdv dk get def
dv cpddv ne {
/upd true def
exit
} if
} forall
} {
/upd true def
} ifelse
} ifelse
} if
} ifelse
upd true eq {
d k v put
} if
} if
} if
} forall
d length 0 gt {
d setpagedevice
} if
} bd
/RE { % /NewFontName [NewEncodingArray] /FontName RE -
  findfont dup length dict begin
  {
    1 index /FID ne
    {def} {pop pop} ifelse
  } forall
  /Encoding exch def
  /FontName 1 index def
  currentdict definefont pop
  end
} bind def
%%EndResource
%%BeginResource: procset (Apache XML Graphics EPS ProcSet) 1.0 0
%%Version: 1.0 0
%%Copyright: (Copyright 2002-2003 The Apache Software Foundation. License terms: http://www.apache.org/licenses/LICENSE-2.0)
/BeginEPSF { %def
/b4_Inc_state save def         % Save state for cleanup
/dict_count countdictstack def % Count objects on dict stack
/op_count count 1 sub def      % Count objects on operand stack
userdict begin                 % Push userdict on dict stack
/showpage { } def              % Redefine showpage, { } = null proc
0 setgray 0 setlinecap         % Prepare graphics state
1 setlinewidth 0 setlinejoin
10 setmiterlimit [ ] 0 setdash newpath
/languagelevel where           % If level not equal to 1 then
{pop languagelevel             % set strokeadjust and
1 ne                           % overprint to their defaults.
{false setstrokeadjust false setoverprint
} if
} if
} bd
/EndEPSF { %def
count op_count sub {pop} repeat            % Clean up stacks
countdictstack dict_count sub {end} repeat
b4_Inc_state restore
} bd
%%EndResource
%FOPBeginFontDict
%%IncludeResource: font Courier-Bold
%%IncludeResource: font Helvetica
%%IncludeResource: font Courier-BoldOblique
%%IncludeResource: font Courier-Oblique
%%IncludeResource: font Times-Roman
%%IncludeResource: font Helvetica-BoldOblique
%%IncludeResource: font Helvetica-Bold
%%IncludeResource: font Helvetica-Oblique
%%IncludeResource: font Times-BoldItalic
%%IncludeResource: font Courier
%%IncludeResource: font Times-Italic
%%IncludeResource: font Times-Bold
%%IncludeResource: font Symbol
%%IncludeResource: font ZapfDingbats
%FOPEndFontDict
%%BeginResource: encoding WinAnsiEncoding
/WinAnsiEncoding [
/.notdef /.notdef /.notdef /.notdef /.notdef
/.notdef /.notdef /.notdef /.notdef /.notdef
/.notdef /.notdef /.notdef /.notdef /.notdef
/.notdef /.notdef /.notdef /.notdef /.notdef
/.notdef /.notdef /.notdef /.notdef /.notdef
/.notdef /.notdef /.notdef /.notdef /.notdef
/.notdef /.notdef /space /exclam /quotedbl
/numbersign /dollar /percent /ampersand /quotesingle
/parenleft /parenright /asterisk /plus /comma
/hyphen /period /slash /zero /one
/two /three /four /five /six
/seven /eight /nine /colon /semicolon
/less /equal /greater /question /at
/A /B /C /D /E
/F /G /H /I /J
/K /L /M /N /O
/P /Q /R /S /T
/U /V /W /X /Y
/Z /bracketleft /backslash /bracketright /asciicircum
/underscore /quoteleft /a /b /c
/d /e /f /g /h
/i /j /k /l /m
/n /o /p /q /r
/s /t /u /v /w
/x /y /z /braceleft /bar
/braceright /asciitilde /bullet /Euro /bullet
/quotesinglbase /florin /quotedblbase /ellipsis /dagger
/daggerdbl /circumflex /perthousand /Scaron /guilsinglleft
/OE /bullet /Zcaron /bullet /bullet
/quoteleft /quoteright /quotedblleft /quotedblright /bullet
/endash /emdash /asciitilde /trademark /scaron
/guilsinglright /oe /bullet /zcaron /Ydieresis
/space /exclamdown /cent /sterling /currency
/yen /brokenbar /section /dieresis /copyright
/ordfeminine /guillemotleft /logicalnot /sfthyphen /registered
/macron /degree /plusminus /twosuperior /threesuperior
/acute /mu /paragraph /middot /cedilla
/onesuperior /ordmasculine /guillemotright /onequarter /onehalf
/threequarters /questiondown /Agrave /Aacute /Acircumflex
/Atilde /Adieresis /Aring /AE /Ccedilla
/Egrave /Eacute /Ecircumflex /Edieresis /Igrave
/Iacute /Icircumflex /Idieresis /Eth /Ntilde
/Ograve /Oacute /Ocircumflex /Otilde /Odieresis
/multiply /Oslash /Ugrave /Uacute /Ucircumflex
/Udieresis /Yacute /Thorn /germandbls /agrave
/aacute /acircumflex /atilde /adieresis /aring
/ae /ccedilla /egrave /eacute /ecircumflex
/edieresis /igrave /iacute /icircumflex /idieresis
/eth /ntilde /ograve /oacute /ocircumflex
/otilde /odieresis /divide /oslash /ugrave
/uacute /ucircumflex /udieresis /yacute /thorn
/ydieresis
] def
%%EndResource
%FOPBeginFontReencode
/Courier-Bold findfont
dup length dict begin
  {1 index /FID ne {def} {pop pop} ifelse} forall
  /Encoding WinAnsiEncoding def
  currentdict
end
/Courier-Bold exch definefont pop
/Helvetica findfont
dup length dict begin
  {1 index /FID ne {def} {pop pop} ifelse} forall
  /Encoding WinAnsiEncoding def
  currentdict
end
/Helvetica exch definefont pop
/Courier-BoldOblique findfont
dup length dict begin
  {1 index /FID ne {def} {pop pop} ifelse} forall
  /Encoding WinAnsiEncoding def
  currentdict
end
/Courier-BoldOblique exch definefont pop
/Courier-Oblique findfont
dup length dict begin
  {1 index /FID ne {def} {pop pop} ifelse} forall
  /Encoding WinAnsiEncoding def
  currentdict
end
/Courier-Oblique exch definefont pop
/Times-Roman findfont
dup length dict begin
  {1 index /FID ne {def} {pop pop} ifelse} forall
  /Encoding WinAnsiEncoding def
  currentdict
end
/Times-Roman exch definefont pop
/Helvetica-BoldOblique findfont
dup length dict begin
  {1 index /FID ne {def} {pop pop} ifelse} forall
  /Encoding WinAnsiEncoding def
  currentdict
end
/Helvetica-BoldOblique exch definefont pop
/Helvetica-Bold findfont
dup length dict begin
  {1 index /FID ne {def} {pop pop} ifelse} forall
  /Encoding WinAnsiEncoding def
  currentdict
end
/Helvetica-Bold exch definefont pop
/Helvetica-Oblique findfont
dup length dict begin
  {1 index /FID ne {def} {pop pop} ifelse} forall
  /Encoding WinAnsiEncoding def
  currentdict
end
/Helvetica-Oblique exch definefont pop
/Times-BoldItalic findfont
dup length dict begin
  {1 index /FID ne {def} {pop pop} ifelse} forall
  /Encoding WinAnsiEncoding def
  currentdict
end
/Times-BoldItalic exch definefont pop
/Courier findfont
dup length dict begin
  {1 index /FID ne {def} {pop pop} ifelse} forall
  /Encoding WinAnsiEncoding def
  currentdict
end
/Courier exch definefont pop
/Times-Italic findfont
dup length dict begin
  {1 index /FID ne {def} {pop pop} ifelse} forall
  /Encoding WinAnsiEncoding def
  currentdict
end
/Times-Italic exch definefont pop
/Times-Bold findfont
dup length dict begin
  {1 index /FID ne {def} {pop pop} ifelse} forall
  /Encoding WinAnsiEncoding def
  currentdict
end
/Times-Bold exch definefont pop
%FOPEndFontReencode
%%EndProlog
%%Page: 1 1
%%PageBoundingBox: 0 0 420 315
%%BeginPageSetup
[1 0 0 -1 0 315] CT
%%EndPageSetup
GS
[0.75 0 0 0.75 0 0] CT
1 GC
N
0 0 560 420 re
f
GR
GS
[0.75 0 0 0.75 0 0] CT
1 GC
N
0 0 560 420 re
f
GR
GS
[0.75 0 0 0.75 0 0] CT
0.941 GC
N
73 311 M
507 311 L
507 94 L
73 94 L
cp
f
GR
GS
[0.75 0 0 0.75 0 0] CT
0.941 GC
2 setlinecap
1 LJ
0.667 LW
N
73 311 M
507 311 L
S
GR
GS
[0.75 0 0 0.75 0 0] CT
0.149 GC
2 setlinecap
1 LJ
0.667 LW
N
73 311 M
73 94 L
S
GR
GS
[0.75 0 0 0.75 0 0] CT
0.149 GC
2 setlinecap
1 LJ
0.667 LW
N
73 311 M
77.34 311 L
S
GR
GS
[0.75 0 0 0.75 0 0] CT
0.149 GC
2 setlinecap
1 LJ
0.667 LW
N
73 238.667 M
77.34 238.667 L
S
GR
GS
[0.75 0 0 0.75 0 0] CT
0.149 GC
2 setlinecap
1 LJ
0.667 LW
N
73 166.333 M
77.34 166.333 L
S
GR
GS
[0.75 0 0 0.75 0 0] CT
0.149 GC
2 setlinecap
1 LJ
0.667 LW
N
73 94 M
77.34 94 L
S
GR
GS
[0.75 0 0 0.75 50.75 233.25] CT
0.149 GC
/Helvetica 13.333 F
GS
[1 0 0 1 0 0] CT
-8 5.5 moveto 
1 -1 scale
(0) t 
GR
GR
GS
[0.75 0 0 0.75 50.75 179] CT
0.149 GC
/Helvetica 13.333 F
GS
[1 0 0 1 0 0] CT
-19 5.5 moveto 
1 -1 scale
(0.5) t 
GR
GR
GS
[0.75 0 0 0.75 50.75 124.75] CT
0.149 GC
/Helvetica 13.333 F
GS
[1 0 0 1 0 0] CT
-8 5.5 moveto 
1 -1 scale
(1) t 
GR
GR
GS
[0.75 0 0 0.75 50.75 70.5] CT
0.149 GC
/Helvetica 13.333 F
GS
[1 0 0 1 0 0] CT
-19 5.5 moveto 
1 -1 scale
(1.5) t 
GR
GR
GS
[0.75 0 0 0.75 217.5 233.25] CT
N
1.333 0 M
1.333 0.736 0.736 1.333 0 1.333 C
-0.736 1.333 -1.333 0.736 -1.333 0 C
-1.333 -0.736 -0.736 -1.333 0 -1.333 C
0.736 -1.333 1.333 -0.736 1.333 0 C
cp
f
GR
GS
[0.75 0 0 0.75 0 0] CT
1 LJ
0.667 LW
N
434.667 311 M
434.594 306.41 L
434.375 301.825 L
434.012 297.249 L
433.503 292.686 L
432.849 288.142 L
432.052 283.622 L
431.112 279.128 L
430.03 274.667 L
428.807 270.243 L
427.444 265.859 L
425.942 261.521 L
424.304 257.233 L
422.53 252.999 L
420.623 248.823 L
418.585 244.71 L
416.417 240.664 L
414.122 236.688 L
411.701 232.787 L
409.159 228.965 L
406.496 225.226 L
403.716 221.573 L
400.821 218.01 L
397.815 214.541 L
394.7 211.169 L
391.48 207.897 L
388.158 204.729 L
384.737 201.668 L
381.22 198.717 L
377.612 195.88 L
373.915 193.158 L
370.134 190.555 L
366.272 188.073 L
362.333 185.715 L
358.322 183.483 L
354.242 181.38 L
350.097 179.407 L
345.891 177.566 L
341.63 175.86 L
337.316 174.29 L
332.954 172.857 L
328.55 171.564 L
324.106 170.411 L
319.629 169.4 L
315.121 168.531 L
310.588 167.806 L
306.035 167.225 L
301.465 166.788 L
296.884 166.497 L
292.295 166.352 L
287.705 166.352 L
283.116 166.497 L
278.535 166.788 L
273.965 167.225 L
269.412 167.806 L
264.879 168.531 L
260.371 169.4 L
255.894 170.411 L
251.45 171.564 L
247.046 172.857 L
242.684 174.29 L
238.37 175.86 L
234.109 177.566 L
229.903 179.407 L
225.758 181.38 L
221.678 183.483 L
217.667 185.715 L
213.728 188.073 L
209.866 190.555 L
206.085 193.158 L
202.388 195.88 L
198.78 198.717 L
195.263 201.668 L
191.842 204.729 L
188.52 207.897 L
185.3 211.169 L
182.185 214.541 L
179.179 218.01 L
176.284 221.573 L
173.504 225.226 L
170.841 228.965 L
168.299 232.787 L
165.878 236.688 L
163.583 240.664 L
161.415 244.71 L
159.377 248.823 L
157.47 252.999 L
155.696 257.233 L
154.058 261.521 L
152.556 265.859 L
151.193 270.243 L
149.97 274.667 L
148.888 279.128 L
147.948 283.622 L
147.15 288.142 L
146.497 292.686 L
145.988 297.249 L
145.625 301.825 L
145.406 306.41 L
145.333 311 L
S
GR
GS
[0.75 0 0 0.75 0 0] CT
1 LJ
0.667 LW
N
73 311 M
507 311 L
S
GR
GS
[0.75 0 0 0.75 0 0] CT
1 0 0 RC
1 LJ
0.667 LW
N
375.98 177.094 M
375.303 176.661 L
374.623 176.232 L
373.941 175.807 L
373.258 175.384 L
372.572 174.966 L
371.883 174.55 L
371.193 174.139 L
370.501 173.73 L
369.807 173.325 L
369.11 172.924 L
368.412 172.526 L
367.712 172.132 L
367.009 171.741 L
366.305 171.354 L
365.599 170.971 L
364.891 170.591 L
364.181 170.214 L
363.469 169.841 L
362.755 169.472 L
362.039 169.106 L
361.321 168.744 L
360.602 168.386 L
359.881 168.031 L
359.158 167.68 L
358.433 167.333 L
357.707 166.989 L
356.979 166.649 L
356.249 166.312 L
355.517 165.98 L
354.784 165.651 L
354.049 165.325 L
353.312 165.004 L
352.574 164.686 L
351.834 164.371 L
351.093 164.061 L
350.35 163.754 L
349.606 163.451 L
348.86 163.152 L
348.112 162.857 L
347.363 162.565 L
346.613 162.278 L
345.861 161.993 L
345.108 161.713 L
344.353 161.437 L
343.597 161.164 L
342.84 160.895 L
342.081 160.631 L
341.321 160.369 L
340.559 160.112 L
339.797 159.859 L
339.033 159.609 L
338.268 159.363 L
337.501 159.122 L
336.733 158.884 L
335.965 158.65 L
335.195 158.419 L
334.423 158.193 L
333.651 157.971 L
332.878 157.752 L
332.103 157.537 L
331.328 157.327 L
330.551 157.12 L
329.773 156.917 L
328.995 156.718 L
328.215 156.523 L
327.434 156.332 L
326.653 156.145 L
325.87 155.962 L
325.086 155.783 L
324.302 155.608 L
323.517 155.436 L
322.731 155.269 L
321.944 155.106 L
321.156 154.946 L
320.368 154.791 L
319.578 154.64 L
318.788 154.492 L
317.997 154.349 L
317.206 154.21 L
316.414 154.074 L
315.621 153.943 L
314.827 153.815 L
314.033 153.692 L
313.238 153.573 L
312.443 153.457 L
311.647 153.346 L
310.85 153.239 L
310.053 153.135 L
309.256 153.036 L
308.458 152.941 L
307.659 152.85 L
306.86 152.762 L
306.061 152.679 L
305.261 152.6 L
304.461 152.525 L
303.66 152.454 L
302.859 152.387 L
302.058 152.324 L
301.257 152.265 L
S
GR
GS
[0.75 0 0 0.75 0 0] CT
0 0 1 RC
[10 6] 0 setdash
2 LJ
0.667 LW
N
290 311 M
375.98 177.094 L
S
GR
GS
[0.75 0 0 0.75 0 0] CT
0 0 1 RC
[10 6] 0 setdash
2 LJ
0.667 LW
N
290 311 M
301.257 152.265 L
S
GR
GS
[0.75 0 0 0.75 224.25 205.5] CT
N
2.094 0.141 M
1.5 0.141 1.148 -0.289 QT
0.797 -0.719 0.656 -1.328 QT
0.516 -1.938 0.516 -2.531 QT
0.516 -2.547 L
0.516 -3.188 0.641 -3.891 QT
0.766 -4.594 1 -5.289 QT
1.234 -5.984 1.516 -6.531 QT
1.703 -6.906 2 -7.375 QT
2.297 -7.844 2.672 -8.258 QT
3.047 -8.672 3.477 -8.922 QT
3.906 -9.172 4.344 -9.172 QT
4.359 -9.172 L
4.828 -9.172 5.141 -8.906 QT
5.453 -8.641 5.625 -8.234 QT
5.797 -7.828 5.867 -7.367 QT
5.938 -6.906 5.938 -6.484 QT
5.938 -5.5 5.672 -4.477 QT
5.406 -3.453 4.938 -2.5 QT
4.766 -2.141 4.445 -1.648 QT
4.125 -1.156 3.773 -0.766 QT
3.422 -0.375 2.984 -0.117 QT
2.547 0.141 2.109 0.141 QT
2.094 0.141 L
cp
2.125 -0.203 M
2.547 -0.203 2.945 -0.664 QT
3.344 -1.125 3.641 -1.781 QT
3.938 -2.438 4.164 -3.125 QT
4.391 -3.813 4.5 -4.297 QT
1.844 -4.297 L
1.641 -3.469 1.531 -2.875 QT
1.422 -2.281 1.422 -1.719 QT
1.422 -0.203 2.125 -0.203 QT
cp
1.953 -4.75 M
4.609 -4.75 L
4.75 -5.313 4.836 -5.703 QT
4.922 -6.094 4.977 -6.516 QT
5.031 -6.938 5.031 -7.313 QT
5.031 -8.828 4.344 -8.828 QT
3.516 -8.828 2.914 -7.5 QT
2.313 -6.172 1.953 -4.75 QT
cp
f
GR
%%Trailer
%%Pages: 1
%%EOF
