\relax 
\catcode`"\active
\select@language{dutch}
\@writefile{toc}{\select@language{dutch}}
\@writefile{lof}{\select@language{dutch}}
\@writefile{lot}{\select@language{dutch}}
\@writefile{toc}{\contentsline {section}{\numberline {1}Inleiding}{2}}
\@writefile{toc}{\contentsline {paragraph}{}{2}}
\@writefile{toc}{\contentsline {section}{\numberline {2}Path Tracer}{2}}
\@writefile{toc}{\contentsline {subsection}{\numberline {2.1}Vergelijking Directe Belichting}{2}}
\@writefile{lof}{\contentsline {figure}{\numberline {1}{\ignorespaces Cornell Box scene gerenderd met een brute-force path tracer met russian roullette en cosinus-sampling. 10k stralen per pixel.\relax }}{3}}
\@writefile{lof}{\contentsline {figure}{\numberline {2}{\ignorespaces Cornell Box scene met eenvoudige directe belichting en shaduwstralen. Dit beeld is gerenderd met 1k stralen per pixel.\relax }}{3}}
\@writefile{lof}{\contentsline {figure}{\numberline {3}{\ignorespaces RMSE t.o.v. een referentie in functie van het aantal stralen per pixel.\relax }}{4}}
\providecommand*\caption@xref[2]{\@setref\relax\@undefined{#1}}
\newlabel{fig:rmse_path_direct}{{3}{4}}
\newlabel{fig:rmse_path_direct@cref}{{[figure][3][]3}{4}}
\@writefile{toc}{\contentsline {subsection}{\numberline {2.2}Grootte van de Lichtbron}{4}}
\@writefile{lof}{\contentsline {figure}{\numberline {4}{\ignorespaces CV(RMSE) t.o.v. een referentie in functie van het aantal stralen per pixel.\relax }}{5}}
\newlabel{fig:small_big}{{4}{5}}
\newlabel{fig:small_big@cref}{{[figure][4][]4}{5}}
\@writefile{toc}{\contentsline {subsection}{\numberline {2.3}Branching Factor}{5}}
\@writefile{lof}{\contentsline {figure}{\numberline {5}{\ignorespaces RMSE t.o.v. dezelfde referentie in functie van het aantal stralen per pixel. De zwarte streeplijn geeft aan dat het het beeld voor (b=1, N=512) en (b=3, N=128) vergelijkbaar in kwaliteit zijn.\relax }}{6}}
\newlabel{fig:rmse_branching}{{5}{6}}
\newlabel{fig:rmse_branching@cref}{{[figure][5][]5}{6}}
\@writefile{lof}{\contentsline {figure}{\numberline {6}{\ignorespaces Vergelijking van de kwaliteit van de twee beelden met een verschillende branching factor b en stralen per pixel N.\relax }}{6}}
\newlabel{fig:branch_comparison}{{6}{6}}
\newlabel{fig:branch_comparison@cref}{{[figure][6][]6}{6}}
\@writefile{lof}{\contentsline {subfigure}{\numberline{(a)}{\ignorespaces {b=1, N=512}}}{6}}
\@writefile{lof}{\contentsline {subfigure}{\numberline{(b)}{\ignorespaces {b=3, N=128}}}{6}}
\@writefile{toc}{\contentsline {subsection}{\numberline {2.4}Indirecte Belichting}{6}}
\@writefile{lof}{\contentsline {figure}{\numberline {7}{\ignorespaces Cornell Box waar enkel het licht na N bounces is weergeven.\relax }}{7}}
\newlabel{fig:direct_bounces}{{7}{7}}
\newlabel{fig:direct_bounces@cref}{{[figure][7][]7}{7}}
\@writefile{lof}{\contentsline {subfigure}{\numberline{(a)}{\ignorespaces {0}}}{7}}
\@writefile{lof}{\contentsline {subfigure}{\numberline{(b)}{\ignorespaces {1}}}{7}}
\@writefile{lof}{\contentsline {subfigure}{\numberline{(c)}{\ignorespaces {2}}}{7}}
\@writefile{lof}{\contentsline {subfigure}{\numberline{(d)}{\ignorespaces {3}}}{7}}
\@writefile{lof}{\contentsline {subfigure}{\numberline{(e)}{\ignorespaces {4}}}{7}}
\@writefile{toc}{\contentsline {section}{\numberline {3}Hybride}{7}}
\@writefile{lof}{\contentsline {figure}{\numberline {8}{\ignorespaces Vergelijking van de convergentiesnelheid voor de brute-force path tracer met en zonder branching, en de hybride aanpak. De zwarte streeplijn geeft een gelijkwaardig kwaliteitsniveau aan.\relax }}{7}}
\newlabel{fig:rmse_hybrid}{{8}{7}}
\newlabel{fig:rmse_hybrid@cref}{{[figure][8][]8}{7}}
\@writefile{lof}{\contentsline {figure}{\numberline {9}{\ignorespaces Vergelijking van de kwaliteit van de twee beelden met een verschillende branching factor b en stralen per pixel N.\relax }}{8}}
\newlabel{fig:hybrid_comparison}{{9}{8}}
\newlabel{fig:hybrid_comparison@cref}{{[figure][9][]9}{8}}
\@writefile{lof}{\contentsline {subfigure}{\numberline{(a)}{\ignorespaces {Brute-Force N=1024}}}{8}}
\@writefile{lof}{\contentsline {subfigure}{\numberline{(b)}{\ignorespaces {Hybride N=128}}}{8}}
\@writefile{toc}{\contentsline {section}{\numberline {4}Caustics}{8}}
\@writefile{lof}{\contentsline {figure}{\numberline {10}{\ignorespaces \relax }}{8}}
\newlabel{fig:caustic_comparison}{{10}{8}}
\newlabel{fig:caustic_comparison@cref}{{[figure][10][]10}{8}}
\@writefile{lof}{\contentsline {subfigure}{\numberline{(a)}{\ignorespaces {Render van een koffietas. 2048 Stralen per pixel.}}}{8}}
\@writefile{lof}{\contentsline {subfigure}{\numberline{(b)}{\ignorespaces {Foto van een koffietas.}}}{8}}
\@writefile{lof}{\contentsline {figure}{\numberline {11}{\ignorespaces Vergelijking van de convergentiesnelheid voor de hybride aanpak op de koffietas en de Cornell Box.\relax }}{9}}
\newlabel{fig:rmse_caustics}{{11}{9}}
\newlabel{fig:rmse_caustics@cref}{{[figure][11][]11}{9}}
\@writefile{toc}{\contentsline {section}{\numberline {5}Conclusie}{9}}
\@writefile{lof}{\contentsline {figure}{\numberline {12}{\ignorespaces Foto van een auto dat gebruikt maakt van o.a. Fresnel reflectie/refractie (ruiten), omgevingslichtbron, texturen en acceleratiestructuren.\relax }}{10}}
\@writefile{toc}{\contentsline {section}{\numberline {6}Progressies}{10}}
\@writefile{lof}{\contentsline {figure}{\numberline {13}{\ignorespaces Progressie van de Cornell Box scene met de brute-force path tracer.\relax }}{10}}
\newlabel{fig:path_progressie}{{13}{10}}
\newlabel{fig:path_progressie@cref}{{[figure][13][]13}{10}}
\@writefile{lof}{\contentsline {subfigure}{\numberline{(a)}{\ignorespaces {1}}}{10}}
\@writefile{lof}{\contentsline {subfigure}{\numberline{(b)}{\ignorespaces {32}}}{10}}
\@writefile{lof}{\contentsline {subfigure}{\numberline{(c)}{\ignorespaces {256}}}{10}}
\@writefile{lof}{\contentsline {subfigure}{\numberline{(d)}{\ignorespaces {2048}}}{10}}
\@writefile{lof}{\contentsline {subfigure}{\numberline{(e)}{\ignorespaces {8192}}}{10}}
\@writefile{lof}{\contentsline {figure}{\numberline {14}{\ignorespaces Progressie van de Cornell Box scene met directe belichting.\relax }}{11}}
\newlabel{fig:direct_progressie}{{14}{11}}
\newlabel{fig:direct_progressie@cref}{{[figure][14][]14}{11}}
\@writefile{lof}{\contentsline {subfigure}{\numberline{(a)}{\ignorespaces {1}}}{11}}
\@writefile{lof}{\contentsline {subfigure}{\numberline{(b)}{\ignorespaces {32}}}{11}}
\@writefile{lof}{\contentsline {subfigure}{\numberline{(c)}{\ignorespaces {256}}}{11}}
\@writefile{lof}{\contentsline {subfigure}{\numberline{(d)}{\ignorespaces {2048}}}{11}}
\@writefile{lof}{\contentsline {figure}{\numberline {15}{\ignorespaces Progressie van de Cornell Box scene met de brute-force path tracer voor een kleinere lichtbron.\relax }}{11}}
\newlabel{fig:small_progressie}{{15}{11}}
\newlabel{fig:small_progressie@cref}{{[figure][15][]15}{11}}
\@writefile{lof}{\contentsline {subfigure}{\numberline{(a)}{\ignorespaces {1}}}{11}}
\@writefile{lof}{\contentsline {subfigure}{\numberline{(b)}{\ignorespaces {32}}}{11}}
\@writefile{lof}{\contentsline {subfigure}{\numberline{(c)}{\ignorespaces {256}}}{11}}
\@writefile{lof}{\contentsline {subfigure}{\numberline{(d)}{\ignorespaces {2048}}}{11}}
\@writefile{lof}{\contentsline {figure}{\numberline {16}{\ignorespaces Progressie van de Cornell Box scene met de brute-force path tracer met een branching factor van 3 en een maximale diepte van 5.\relax }}{11}}
\newlabel{fig:branching_progressie}{{16}{11}}
\newlabel{fig:branching_progressie@cref}{{[figure][16][]16}{11}}
\@writefile{lof}{\contentsline {subfigure}{\numberline{(a)}{\ignorespaces {1}}}{11}}
\@writefile{lof}{\contentsline {subfigure}{\numberline{(b)}{\ignorespaces {8}}}{11}}
\@writefile{lof}{\contentsline {subfigure}{\numberline{(c)}{\ignorespaces {64}}}{11}}
\@writefile{lof}{\contentsline {subfigure}{\numberline{(d)}{\ignorespaces {512}}}{11}}
\@writefile{lof}{\contentsline {figure}{\numberline {17}{\ignorespaces Progressie van de Cornell Box scene met de hybride aanpak.\relax }}{12}}
\newlabel{fig:hybrid_progressie}{{17}{12}}
\newlabel{fig:hybrid_progressie@cref}{{[figure][17][]17}{12}}
\@writefile{lof}{\contentsline {subfigure}{\numberline{(a)}{\ignorespaces {1}}}{12}}
\@writefile{lof}{\contentsline {subfigure}{\numberline{(b)}{\ignorespaces {8}}}{12}}
\@writefile{lof}{\contentsline {subfigure}{\numberline{(c)}{\ignorespaces {128}}}{12}}
\@writefile{lof}{\contentsline {subfigure}{\numberline{(d)}{\ignorespaces {2048}}}{12}}
\@writefile{lof}{\contentsline {figure}{\numberline {18}{\ignorespaces Progressie van een koffie tas scene met de brute-force aanpak.\relax }}{12}}
\newlabel{fig:caustic_progressie}{{18}{12}}
\newlabel{fig:caustic_progressie@cref}{{[figure][18][]18}{12}}
\@writefile{lof}{\contentsline {subfigure}{\numberline{(a)}{\ignorespaces {1}}}{12}}
\@writefile{lof}{\contentsline {subfigure}{\numberline{(b)}{\ignorespaces {8}}}{12}}
\@writefile{lof}{\contentsline {subfigure}{\numberline{(c)}{\ignorespaces {128}}}{12}}
\@writefile{lof}{\contentsline {subfigure}{\numberline{(d)}{\ignorespaces {2048}}}{12}}
